[97;42mconfig: {"App":{"Pid":"data/sensitive.pid","Name":"敏感词过滤服务","Env":"product","TrieFile":"data/sensitive.txt"},"Logger":{"Path":"logs","FileName":"app.log"},"Redis":{"Host":"127.0.0.1","Port":6379,"Auth":""},"Db":{"Host":"127.0.0.1","Port":3306,"UserName":"ent","Password":"sdf@","Db":"ent"}}[0m
[97;42m敏感词过滤服务启动成功，进程pid：24591[0m
[97;43mbuild tree cost: 73.824922ms[0m
2019/12/27 14:30:12 24591 Received SIGTERM.
2019/12/27 14:30:12 24591 Waiting for connections to finish...
2019/12/27 14:30:12 24591 Serve() returning...
[97;41maccept tcp [::]:8066: use of closed network connection[0m
2019/12/27 14:30:12 24591 [::]:8066 Listener closed.
